…
```r
hdng_names_cats("Welvaart", from = 1880, to = 1940, show.only.available = F) 
```

```
## # A tibble: 23 x 65
##    descr main.cat meaning var   `1880` `1881` `1882` `1883` `1884` `1885` `1886`
##    <chr> <chr>    <chr>   <chr>  <int>  <int>  <int>  <int>  <int>  <int>  <int>
##  1 Aant… h        Welvaa… aael       0      0      0      0      0      0      0
##  2 Aant… h        Welvaa… aaga       0      0      0      0      0      0      0
##  3 Aant… h        Welvaa… aate       0      0      0      0      0      0      0
##  4 Aant… h        Welvaa… aaro       0      0      0      0      0      0      0
##  5 Aant… h        Welvaa… adar       0      0      0      0      0      0      0
##  6 Aant… h        Welvaa… aper       0      0      0      0      0      0      0
##  7 Aant… h        Welvaa… avra       0      0      0      0      0      0      0
##  8 Aant… h        Welvaa… amot       0      0      0      0      0      0      0
##  9 Aant… h        Welvaa… amtm       0      0      0      0      0      0      0
## 10 Aand… h        Welvaa… agpb       0      0      0      0      0      0      0
## # … with 13 more rows, and 54 more variables: `1887` <int>, `1888` <int>,
## #   `1889` <int>, `1890` <int>, `1891` <int>, `1892` <int>, `1893` <int>,
## #   `1894` <int>, `1895` <int>, `1896` <int>, `1897` <int>, `1898` <int>,
## #   `1899` <int>, `1900` <int>, `1901` <int>, `1902` <int>, `1903` <int>,
## #   `1904` <int>, `1905` <int>, `1906` <int>, `1907` <int>, `1908` <int>,
## #   `1909` <int>, `1910` <int>, `1911` <int>, `1912` <int>, `1913` <int>,
## #   `1914` <int>, `1915` <int>, `1916` <int>, `1917` <int>, `1918` <int>,
## #   `1919` <int>, `1920` <int>, `1921` <int>, `1922` <int>, `1923` <int>,
## #   `1924` <int>, `1925` <int>, `1926` <int>, `1927` <int>, `1928` <int>,
…
